<?xml version="1.0" encoding="utf-8"?>
<!-- Generator: Adobe Illustrator 21.0.0, SVG Export Plug-In . SVG Version: 6.00 Build 0)  -->
<svg version="1.1" id="Livello_1" xmlns="http://www.w3.org/2000/svg" xmlns:xlink="http://www.w3.org/1999/xlink" x="0px" y="0px"
	 viewBox="0 0 240.1 119.9" style="enable-background:new 0 0 240.1 119.9;" xml:space="preserve">
<style type="text/css">
	.st0{clip-path:url(#SVGID_2_);fill:url(#SVGID_3_);}
</style>
<g>
	<path d="M98.7,59.3h-8l-6.4,6.9h6.3v5c-2.1,1.1-4.4,1.6-6.9,1.6c-2.4,0-4.6-0.5-6.4-1.5c-1.9-1.1-3.4-2.5-4.4-4.4
		c-1.1-1.8-1.6-4-1.6-6.3c0-2.4,0.5-4.5,1.6-6.4c1.1-1.8,2.5-3.3,4.4-4.4c1.9-1,4.1-1.5,6.5-1.5c2.6,0,4.9,0.7,7,1.9l5.4-5.7
		c-1.1-0.8-2.4-1.5-3.7-2.1c-2.8-1.1-5.8-1.7-9.2-1.7c-4.1,0-7.6,0.8-10.9,2.5s-5.7,4.1-7.5,7c-1.8,3-2.7,6.4-2.7,10.2
		s0.9,7.2,2.7,10.2c1.8,3,4.3,5.3,7.5,7c3.2,1.7,6.7,2.5,10.7,2.5c2.8,0,5.5-0.4,8.3-1.2c2.8-0.8,5.1-2.1,7.3-3.6L98.7,59.3
		L98.7,59.3L98.7,59.3z"/>
</g>
<g>
	<g>
		<g>
			<g>
				<defs>
					<polygon id="SVGID_1_" points="117.5,40.6 99.8,59.2 99.8,70 104.9,64.6 117.8,80.3 128.2,80.3 110.7,58.4 127.4,40.6 					"/>
				</defs>
				<clipPath id="SVGID_2_">
					<use xlink:href="#SVGID_1_"  style="overflow:visible;"/>
				</clipPath>
				
					<linearGradient id="SVGID_3_" gradientUnits="userSpaceOnUse" x1="-12376.1367" y1="1572.5135" x2="-12375.8428" y2="1572.5135" gradientTransform="matrix(66.8498 -115.7872 115.7872 66.8498 645371.625 -1538046.625)">
					<stop  offset="0" style="stop-color:#744D34"/>
					<stop  offset="1" style="stop-color:#DDAA71"/>
				</linearGradient>
				<polygon class="st0" points="82.6,70.4 106.9,28.3 145.4,50.5 121.1,92.6 				"/>
			</g>
		</g>
	</g>
</g>
<g>
	<rect x="129.1" y="49.6" width="0.7" height="5"/>
	<polygon points="135.6,49.6 135.6,54.6 135,54.6 132,50.9 132,54.6 131.4,54.6 131.4,49.6 131.9,49.6 134.9,53.3 134.9,49.6 	"/>
	<polygon points="141.3,49.6 139.2,54.6 138.5,54.6 136.3,49.6 137,49.6 138.8,53.6 140.6,49.6 	"/>
	<polygon points="145.5,54 145.5,54.6 142,54.6 142,49.6 145.4,49.6 145.4,50.2 142.7,50.2 142.7,51.7 145.1,51.7 145.1,52.3 
		142.7,52.3 142.7,54 	"/>
	<path d="M147,54.4c-0.4-0.2-0.6-0.2-0.8-0.5l0.2-0.5c0.2,0.2,0.5,0.3,0.7,0.4c0.3,0.1,0.6,0.2,0.9,0.2c0.4,0,0.7-0.1,0.9-0.2
		c0.2-0.2,0.3-0.3,0.3-0.5c0-0.2-0.1-0.3-0.2-0.4c-0.1-0.1-0.2-0.2-0.4-0.2s-0.4-0.2-0.7-0.2c-0.4-0.1-0.7-0.2-0.9-0.3
		c-0.2-0.1-0.5-0.2-0.6-0.4c-0.2-0.2-0.2-0.5-0.2-0.8c0-0.2,0.1-0.5,0.2-0.7c0.2-0.2,0.4-0.4,0.6-0.5c0.3-0.2,0.6-0.2,1.1-0.2
		c0.3,0,0.6,0,0.8,0.1c0.3,0.1,0.5,0.2,0.8,0.3l-0.2,0.5c-0.2-0.2-0.5-0.2-0.7-0.3c-0.2-0.1-0.5-0.1-0.7-0.1c-0.4,0-0.7,0.1-0.9,0.2
		c-0.2,0.2-0.3,0.3-0.3,0.5c0,0.2,0.1,0.3,0.2,0.4c0.1,0.1,0.2,0.2,0.4,0.2c0.2,0.1,0.4,0.2,0.7,0.2c0.4,0.1,0.7,0.2,0.9,0.3
		c0.2,0.1,0.4,0.2,0.6,0.4c0.2,0.2,0.2,0.5,0.2,0.8c0,0.2-0.1,0.5-0.2,0.7s-0.4,0.4-0.6,0.5c-0.3,0.2-0.6,0.2-1.1,0.2
		C147.7,54.6,147.4,54.6,147,54.4"/>
	<polygon points="152,50.2 150.3,50.2 150.3,49.6 154.4,49.6 154.4,50.2 152.7,50.2 152.7,54.6 152,54.6 	"/>
	<rect x="155.1" y="49.6" width="0.7" height="5"/>
	<polygon points="161.9,54.6 161.9,51 160.1,54 159.8,54 158,51 158,54.6 157.3,54.6 157.3,49.6 157.9,49.6 159.9,53.1 162,49.6 
		162.6,49.6 162.6,54.6 	"/>
	<polygon points="167.7,54 167.7,54.6 164.1,54.6 164.1,49.6 167.6,49.6 167.6,50.2 164.8,50.2 164.8,51.7 167.3,51.7 167.3,52.3 
		164.8,52.3 164.8,54 	"/>
	<polygon points="173.1,49.6 173.1,54.6 172.5,54.6 169.5,50.9 169.5,54.6 168.8,54.6 168.8,49.6 169.4,49.6 172.3,53.3 172.3,49.6 
			"/>
	<polygon points="175.5,50.2 173.8,50.2 173.8,49.6 177.9,49.6 177.9,50.2 176.2,50.2 176.2,54.6 175.5,54.6 	"/>
	<polygon points="133.4,58.1 133.4,63 132.7,63 132.7,60.8 129.8,60.8 129.8,63 129.1,63 129.1,58.1 129.8,58.1 129.8,60.2 
		132.7,60.2 132.7,58.1 	"/>
	<path d="M135.8,62.7c-0.4-0.2-0.7-0.5-0.9-0.9c-0.2-0.4-0.3-0.8-0.3-1.3c0-0.5,0.1-0.9,0.3-1.3c0.2-0.4,0.5-0.7,0.9-0.9
		s0.8-0.3,1.4-0.3c0.5,0,0.9,0.1,1.4,0.3c0.4,0.2,0.7,0.5,0.9,0.9c0.2,0.4,0.3,0.8,0.3,1.3s-0.1,0.9-0.3,1.3
		c-0.2,0.4-0.5,0.7-0.9,0.9s-0.8,0.3-1.4,0.3C136.6,63.1,136.2,63,135.8,62.7 M138.1,62.2c0.3-0.2,0.5-0.4,0.7-0.7
		c0.2-0.3,0.2-0.6,0.2-1c0-0.4-0.1-0.7-0.2-1c-0.2-0.3-0.4-0.5-0.7-0.7c-0.3-0.2-0.6-0.2-1-0.2s-0.7,0.1-1,0.2
		c-0.3,0.2-0.5,0.4-0.7,0.7s-0.2,0.6-0.2,1c0,0.4,0.1,0.7,0.2,1c0.2,0.3,0.4,0.5,0.7,0.7c0.3,0.2,0.6,0.2,1,0.2
		S137.8,62.4,138.1,62.2"/>
	<polygon points="140.8,58.1 141.5,58.1 141.5,62.4 144.2,62.4 144.2,63 140.8,63 	"/>
	<path d="M145,58.1h2.1c0.5,0,1,0.1,1.4,0.3c0.4,0.2,0.7,0.5,0.9,0.8c0.2,0.4,0.3,0.8,0.3,1.3c0,0.5-0.1,0.9-0.3,1.3
		c-0.2,0.4-0.5,0.7-0.9,0.8c-0.4,0.2-0.8,0.3-1.4,0.3H145V58.1z M147,62.4c0.4,0,0.8-0.1,1.1-0.2c0.3-0.2,0.5-0.4,0.7-0.7
		c0.2-0.3,0.2-0.6,0.2-1c0-0.4-0.1-0.7-0.2-1c-0.2-0.3-0.4-0.5-0.7-0.7c-0.3-0.2-0.7-0.2-1.1-0.2h-1.3v3.7L147,62.4L147,62.4z"/>
	<rect x="150.8" y="58.1" width="0.7" height="5"/>
	<polygon points="157.3,58.1 157.3,63 156.7,63 153.8,59.4 153.8,63 153.1,63 153.1,58.1 153.6,58.1 156.6,61.7 156.6,58.1 	"/>
	<path d="M162.2,60.5h0.7v1.9c-0.2,0.2-0.5,0.4-0.8,0.5c-0.3,0.1-0.7,0.2-1,0.2c-0.5,0-0.9-0.1-1.4-0.3c-0.4-0.2-0.7-0.5-0.9-0.9
		c-0.2-0.4-0.3-0.8-0.3-1.3c0-0.5,0.1-0.9,0.3-1.3c0.2-0.4,0.5-0.7,0.9-0.9c0.4-0.2,0.8-0.3,1.4-0.3c0.4,0,0.8,0.1,1.1,0.2
		c0.3,0.2,0.6,0.3,0.8,0.5l-0.5,0.5c-0.4-0.4-0.8-0.5-1.5-0.5c-0.4,0-0.7,0.1-1,0.2c-0.3,0.2-0.5,0.4-0.7,0.7s-0.2,0.6-0.2,1
		c0,0.4,0.1,0.7,0.2,1c0.2,0.3,0.4,0.5,0.7,0.7c0.3,0.2,0.6,0.2,1,0.2c0.5,0,0.8-0.1,1.1-0.3L162.2,60.5L162.2,60.5z"/>
	<path d="M132.6,69h0.7v1.9c-0.2,0.2-0.5,0.4-0.8,0.5c-0.3,0.1-0.7,0.2-1,0.2c-0.5,0-0.9-0.1-1.4-0.3c-0.4-0.2-0.7-0.5-0.9-0.9
		c-0.2-0.4-0.3-0.8-0.3-1.3s0.1-0.9,0.3-1.3c0.2-0.4,0.5-0.7,0.9-0.9c0.4-0.2,0.8-0.3,1.4-0.3c0.4,0,0.8,0.1,1.1,0.2
		c0.3,0.2,0.6,0.3,0.8,0.5l-0.5,0.5c-0.4-0.4-0.8-0.5-1.5-0.5c-0.4,0-0.7,0.1-1,0.2c-0.3,0.2-0.5,0.4-0.7,0.7
		c-0.2,0.3-0.2,0.6-0.2,1s0.1,0.7,0.2,1s0.4,0.5,0.7,0.7s0.6,0.2,1,0.2c0.5,0,0.8-0.1,1.1-0.3L132.6,69L132.6,69z"/>
	<path d="M137.9,71.5l-1.1-1.5c-0.2,0-0.2,0-0.3,0h-1.2v1.5h-0.8v-5h1.9c0.6,0,1.1,0.2,1.5,0.5c0.4,0.3,0.5,0.8,0.5,1.3
		c0,0.4-0.1,0.7-0.3,1c-0.2,0.3-0.5,0.5-0.8,0.6l1.1,1.7L137.9,71.5L137.9,71.5z M137.5,69.1c0.2-0.2,0.4-0.5,0.4-0.8
		c0-0.4-0.2-0.6-0.4-0.8c-0.2-0.2-0.6-0.3-1-0.3h-1.2v2.2h1.2C136.9,69.4,137.3,69.3,137.5,69.1"/>
	<path d="M140.6,71.2c-0.4-0.2-0.7-0.5-0.9-0.9c-0.2-0.4-0.3-0.8-0.3-1.3s0.1-0.9,0.3-1.3c0.2-0.4,0.5-0.7,0.9-0.9
		c0.4-0.2,0.8-0.3,1.4-0.3c0.5,0,0.9,0.1,1.4,0.3c0.4,0.2,0.7,0.5,0.9,0.9c0.2,0.4,0.3,0.8,0.3,1.3s-0.1,0.9-0.3,1.3
		s-0.5,0.7-0.9,0.9s-0.8,0.3-1.4,0.3C141.4,71.6,141,71.5,140.6,71.2 M143,70.7c0.3-0.2,0.5-0.4,0.7-0.7c0.2-0.3,0.2-0.6,0.2-1
		c0-0.4-0.1-0.7-0.2-1c-0.2-0.3-0.4-0.5-0.7-0.7c-0.3-0.2-0.6-0.2-1-0.2s-0.7,0.1-1,0.2c-0.3,0.2-0.5,0.4-0.7,0.7
		c-0.2,0.3-0.2,0.6-0.2,1c0,0.4,0.1,0.7,0.2,1c0.2,0.3,0.4,0.5,0.7,0.7c0.3,0.2,0.6,0.2,1,0.2S142.7,70.8,143,70.7"/>
	<path d="M146.2,71c-0.4-0.4-0.5-0.9-0.5-1.6v-2.8h0.7v2.8c0,1.1,0.5,1.6,1.4,1.6c0.5,0,0.8-0.2,1.1-0.4c0.2-0.2,0.4-0.7,0.4-1.2
		v-2.8h0.7v2.8c0,0.7-0.2,1.2-0.5,1.6c-0.4,0.4-0.9,0.5-1.5,0.5C147,71.6,146.6,71.4,146.2,71"/>
	<path d="M154.7,67c0.4,0.3,0.5,0.8,0.5,1.3s-0.2,1-0.5,1.3s-0.8,0.5-1.5,0.5h-1.2v1.5h-0.7v-5h1.9C153.8,66.6,154.3,66.7,154.7,67
		 M154.2,69.1c0.2-0.2,0.4-0.5,0.4-0.8c0-0.4-0.2-0.6-0.4-0.8c-0.2-0.2-0.6-0.3-1-0.3H152v2.2h1.2C153.6,69.4,154,69.3,154.2,69.1"
		/>
</g>
</svg>
