<?xml version="1.0" encoding="utf-8"?>
<!-- Generator: Adobe Illustrator 21.0.0, SVG Export Plug-In . SVG Version: 6.00 Build 0)  -->
<svg version="1.1" id="Livello_1" xmlns="http://www.w3.org/2000/svg" xmlns:xlink="http://www.w3.org/1999/xlink" x="0px" y="0px"
	 viewBox="0 0 240.1 119.9" style="enable-background:new 0 0 240.1 119.9;" xml:space="preserve">
<style type="text/css">
	.st0{fill:#CB3B45;}
</style>
<path class="st0" d="M106.5,61.8c-0.6-1.2-1.4-2.2-2.2-3c-1-0.7-2-1.4-3.1-1.8s-2.2-1-3.4-1.4c-1.1-0.4-2.2-0.8-3-1.3
	c-1-0.5-1.7-1.1-2.3-1.8c-0.6-0.8-0.9-1.8-0.9-3c0-1.4,0.3-2.6,1-3.4c0.6-0.8,1.5-1.4,2.6-1.7c1-0.3,2.2-0.5,3.3-0.5
	c1.4,0,2.6,0.2,3.4,0.5c0.9,0.3,1.6,0.6,2.1,0.9c0.5,0.3,0.9,0.5,1.2,0.5c0.3,0,0.6-0.1,0.8-0.3c0.2-0.2,0.3-0.5,0.5-0.7
	c0.1-0.2,0.2-0.5,0.2-0.7c0-0.5-0.2-0.8-0.7-1.2c-0.5-0.3-1.1-0.6-1.9-0.9c-0.8-0.2-1.7-0.5-2.6-0.6c-1-0.2-1.8-0.3-2.8-0.3
	c-1.1,0-2.2,0.2-3.4,0.4c-1.2,0.2-2.2,0.7-3.3,1.4c-1,0.6-1.8,1.5-2.5,2.6c-0.6,1.1-1,2.6-1,4.3c0,1.7,0.3,3,0.9,4.1
	s1.4,1.9,2.3,2.6c1,0.6,2,1.2,3.1,1.6c1.1,0.4,2.2,0.9,3.4,1.3c1.1,0.4,2.2,1,3,1.5c1,0.6,1.7,1.4,2.2,2.3c0.6,1,0.9,2.2,0.9,3.7
	c0,1.4-0.2,2.6-0.8,3.6c-0.6,1-1.4,1.7-2.4,2.2c-0.8,0.4-1.7,0.6-2.7,0.7c-0.3,0-0.7,0.1-1.1,0.1c-0.4,0-0.8,0-1.2-0.1h-0.2
	c-0.4,0-0.6,0.2-0.9,0.5c-0.2,0.3-0.3,0.6-0.3,1c0,0.4,0.1,0.7,0.3,1c0.2,0.2,0.3,0.3,0.5,0.4c0.2,0,0.4,0.1,0.6,0.1
	c0.4,0,0.9,0.1,1.4,0.1c2,0,3.7-0.3,5.2-1s2.7-1.8,3.5-3.2c0.9-1.4,1.3-3.3,1.3-5.5C107.4,64.6,107.2,63,106.5,61.8"/>
<path d="M92.8,73.8L81.1,56.2l6.7-8c0.1-0.1,0.2-0.2,0.2-0.3c0-0.2,0.1-0.2,0.1-0.3c0-0.3-0.1-0.6-0.2-0.8c-0.2-0.2-0.4-0.4-0.6-0.6
	c-0.4-0.2-0.6-0.3-0.9-0.3c-0.5,0-0.8,0.2-1,0.5L75.1,59.1v4.7l3.9-5l11,16.5c0.2,0.2,0.3,0.4,0.6,0.5c0.2,0.1,0.4,0.2,0.6,0.2
	c0.3,0,0.6-0.1,0.9-0.2c0.2-0.2,0.5-0.3,0.6-0.6c0.2-0.2,0.2-0.5,0.2-0.8C93,74.2,93,74,92.8,73.8"/>
<path class="st0" d="M126.8,45.3c-0.9-1.5-2.1-2.6-3.6-3.2c-1.5-0.6-3.2-1-5.1-1h-8.4c-0.4,0-0.7,0.1-1,0.3
	c-0.2,0.2-0.4,0.5-0.4,0.8v2.1v10.1V55c0,0.4,0.2,0.7,0.5,1c0.3,0.2,0.7,0.3,1.1,0.3c0.4,0,0.7-0.1,1-0.3s0.5-0.5,0.5-1v-0.4v-9.4
	V44h6.7c2.2,0,3.8,0.6,5,1.8c1.2,1.2,1.8,3,1.8,5.5v14.5c0,2.5-0.6,4.3-1.8,5.5s-2.9,1.8-5,1.8h-8.8c-0.4,0-0.6,0.2-0.8,0.5
	c-0.2,0.3-0.2,0.6-0.2,1c0,0.4,0.1,0.7,0.2,1c0.2,0.3,0.4,0.5,0.8,0.5h8.8c1.8,0,3.5-0.3,5.1-1c1.5-0.6,2.7-1.8,3.6-3.2
	c0.9-1.5,1.3-3.4,1.3-5.9V51.3C128.1,48.8,127.7,46.9,126.8,45.3"/>
<path d="M64.6,76.2c-1.8,0-3.5-0.3-5-1c-1.5-0.6-2.6-1.8-3.5-3.2c-0.9-1.5-1.3-3.4-1.3-5.9V51.3c0-2.5,0.4-4.4,1.3-5.9
	c0.9-1.5,2.1-2.6,3.5-3.2c1.4-0.6,3.1-1,5-1c2,0,3.8,0.3,5.3,1s2.6,1.7,3.4,3c0.8,1.2,1.2,2.6,1.2,4.2c0,0.6-0.2,1-0.4,1.3
	C73.8,50.9,73.5,51,73,51c-0.4,0-0.8-0.1-1-0.3c-0.3-0.2-0.5-0.5-0.5-0.9c-0.2-1.2-0.5-2.3-1-3.1c-0.6-0.9-1.3-1.5-2.2-1.9
	c-1-0.5-2.2-0.6-3.5-0.6c-2.2,0-3.8,0.6-5,1.8c-1.3,1-1.8,2.9-1.8,5.4V66c0,2.5,0.6,4.3,1.8,5.5c1.2,1.2,2.8,1.8,5,1.8
	c2.2,0,3.8-0.6,5-1.8c1.2-1.2,1.8-3,1.8-5.5v-4.2H65c-0.4,0-0.6-0.2-0.9-0.4c-0.2-0.3-0.3-0.6-0.3-1s0.1-0.6,0.3-0.9
	c0.2-0.3,0.5-0.4,0.9-0.4h8.3c0.4,0,0.6,0.1,0.9,0.3c0.2,0.2,0.3,0.6,0.3,0.9v5.8c0,2.5-0.5,4.5-1.4,5.9c-0.9,1.5-2.1,2.6-3.6,3.2
	C68.1,75.9,66.4,76.2,64.6,76.2"/>
<path d="M138.2,76.1c-1.4,0-2.6-0.2-3.8-0.8s-1.9-1.3-2.6-2.2c-0.6-1-1-2.1-1-3.4v-4.5c0-1.1,0.3-2.2,0.9-3.2c0.6-1,1.4-1.8,2.3-2.3
	c1-0.6,2-0.9,3.2-0.9c1.1,0,2.2,0.3,3.1,0.9c1,0.6,1.8,1.4,2.3,2.3c0.6,1,0.9,2.1,0.9,3.3c0,0.9-0.2,1.5-0.4,1.8
	c-0.3,0.4-0.6,0.6-1.1,0.7c-0.5,0.1-1,0.2-1.4,0.2h-8.5v1.7c0,1.6,0.6,2.9,1.8,3.8c1.1,1,2.6,1.4,4.3,1.4c1,0,1.8-0.2,2.3-0.4
	c0.6-0.2,1-0.5,1.2-0.7s0.6-0.3,0.7-0.3c0.1,0,0.2,0,0.3,0.1c0.1,0.1,0.2,0.2,0.2,0.2c0.1,0.1,0.1,0.2,0.1,0.3
	c0,0.2-0.2,0.5-0.6,0.8c-0.4,0.3-1,0.6-1.7,0.9C140.1,76,139.3,76.1,138.2,76.1 M132.2,66.7h8.1c0.9,0,1.4-0.1,1.8-0.2
	c0.2-0.2,0.4-0.6,0.4-1c0-0.9-0.2-1.7-0.6-2.5s-1-1.5-1.8-2s-1.7-0.8-2.7-0.8c-1,0-1.8,0.2-2.6,0.7c-0.8,0.5-1.4,1.1-1.8,1.8
	c-0.5,0.8-0.7,1.6-0.7,2.5L132.2,66.7L132.2,66.7z"/>
<path d="M152.2,76.1c-1.1,0-2.2-0.3-3.1-0.9c-1-0.6-1.8-1.4-2.3-2.4c-0.6-1-0.9-2.1-0.9-3.2v-4.4c0-1.2,0.3-2.2,0.9-3.3
	c0.6-1,1.4-1.8,2.3-2.3s2.1-0.9,3.2-0.9c1.2,0,2.2,0.3,3,0.9c0.8,0.6,1.4,1.2,1.8,1.9V48.9c0-0.2,0.1-0.3,0.2-0.5
	c0.2-0.1,0.3-0.2,0.5-0.2c0.2,0,0.3,0.1,0.5,0.2c0.1,0.1,0.2,0.2,0.2,0.5v26.4c0,0.2-0.1,0.3-0.2,0.5S158,76,157.8,76
	c-0.2,0-0.3-0.1-0.5-0.2c-0.2-0.2-0.2-0.3-0.2-0.5v-1.8c-0.4,0.7-1,1.4-1.9,1.9C154.3,75.9,153.4,76.1,152.2,76.1 M152.2,74.9
	c1,0,1.8-0.2,2.6-0.7s1.4-1,1.8-1.7c0.4-0.6,0.6-1.1,0.6-1.5v-5.7c0-1.1-0.2-2-0.7-2.8c-0.5-0.8-1.1-1.4-1.8-1.8
	c-0.7-0.4-1.5-0.6-2.3-0.6c-1,0-1.8,0.2-2.6,0.7c-0.8,0.5-1.4,1.1-1.8,1.9s-0.7,1.6-0.7,2.5v4.4c0,0.9,0.2,1.8,0.7,2.6
	c0.5,0.8,1.1,1.4,1.8,2C150.5,74.7,151.3,74.9,152.2,74.9"/>
<path d="M162.9,53.3c-0.3,0-0.6-0.1-0.8-0.3s-0.3-0.5-0.3-0.8s0.1-0.6,0.3-0.8c0.2-0.2,0.5-0.3,0.8-0.3c0.3,0,0.6,0.1,0.8,0.3
	s0.3,0.5,0.3,0.8s-0.1,0.6-0.3,0.8C163.5,53.3,163.2,53.3,162.9,53.3 M162.9,76c-0.2,0-0.3-0.1-0.4-0.2c-0.1-0.2-0.2-0.3-0.2-0.5
	V59.6c0-0.2,0.1-0.3,0.2-0.5c0.1-0.1,0.2-0.2,0.4-0.2c0.2,0,0.3,0.1,0.5,0.2c0.1,0.1,0.2,0.2,0.2,0.5v15.7c0,0.2-0.1,0.3-0.2,0.5
	C163.2,75.9,163.1,76,162.9,76"/>
<path d="M168.4,76c-0.2,0-0.3-0.1-0.4-0.2c-0.1-0.2-0.2-0.3-0.2-0.5V48.9c0-0.2,0.1-0.3,0.2-0.5c0.1-0.1,0.2-0.2,0.4-0.2
	c0.2,0,0.3,0.1,0.5,0.2c0.1,0.1,0.2,0.2,0.2,0.5v26.4c0,0.2-0.1,0.3-0.2,0.5C168.7,75.9,168.5,76,168.4,76"/>
<path d="M179.8,76.1c-1.4,0-2.6-0.2-3.8-0.8c-1.1-0.6-1.9-1.3-2.6-2.2c-0.6-1-1-2.1-1-3.4v-4.5c0-1.1,0.3-2.2,0.9-3.2
	c0.6-1,1.4-1.8,2.3-2.3s2-0.9,3.2-0.9c1.1,0,2.2,0.3,3.1,0.9s1.8,1.4,2.3,2.3c0.6,1,0.9,2.1,0.9,3.3c0,0.9-0.2,1.5-0.4,1.8
	c-0.3,0.4-0.6,0.6-1.1,0.7c-0.5,0.1-1,0.2-1.4,0.2h-8.5v1.7c0,1.6,0.6,2.9,1.8,3.8c1.1,1,2.6,1.4,4.3,1.4c1,0,1.8-0.2,2.3-0.4
	c0.6-0.2,1-0.5,1.2-0.7s0.5-0.3,0.7-0.3c0.1,0,0.2,0,0.3,0.1c0.1,0.1,0.2,0.2,0.2,0.2c0.1,0.1,0.1,0.2,0.1,0.3
	c0,0.2-0.2,0.5-0.6,0.8c-0.4,0.3-1,0.6-1.7,0.9C181.8,76,180.9,76.1,179.8,76.1 M173.8,66.7h8.1c0.9,0,1.4-0.1,1.8-0.2
	c0.2-0.2,0.4-0.6,0.4-1c0-0.9-0.2-1.7-0.6-2.5c-0.4-0.8-1-1.5-1.8-2c-0.8-0.6-1.7-0.8-2.7-0.8c-1,0-1.8,0.2-2.6,0.7
	c-0.8,0.5-1.4,1.1-1.8,1.8c-0.5,0.8-0.7,1.6-0.7,2.5L173.8,66.7L173.8,66.7z"/>
</svg>
